[
    {
        "id": "abcd1234",
        "name": "Event Name 1"
    },
    {
        "id": "4321trew",
        "name": "Event Name 2"
    },
    {
        "id": "123e5tr4",
        "name": "Event Name 3"
    }
    
]